{
  "base_url": "/binder/jupyter/user/soumbak-mt15-2021-tp3-2r2cmy61/",
  "hostname": "0.0.0.0",
  "notebook_dir": "/home/jovyan",
  "password": false,
  "pid": 18,
  "port": 8888,
  "secure": false,
  "sock": "",
  "token": "qxCFrVxBQse8pPMuGIp06g",
  "url": "http://0.0.0.0:8888/binder/jupyter/user/soumbak-mt15-2021-tp3-2r2cmy61/"
}